{
  "builders": [{
    "type": "amazon-ebs",
    "region": "us-west-2",
    "source_ami": "ami-01ed306a12b7d1c96",
    "instance_type": "t2.micro",
    "ssh_username": "centos",
    "ami_name": "packer-centos-{{timestamp}}"
  }],

  "provisioners": [
   {
      "type": "shell-local",
      "command": "tar cf ../centosami-cis.tar ../centosami-cis"
   },
   {
      "type": "file",
      "source": "../centosami-cis.tar",
      "destination": "/home/ec2-user/centosami-cis.tar"
   },
   {
      "type": "shell",
      "script": "provision.sh"
   }
   
  ]
}
